Homework 00
…
(a) Install and load the faraway package. Do not include the installation command in your .Rmd file. (If you do it will install the package every time you knit your file.) Do include the command to load the package into your environment.

Solution:

library(faraway)

(b) Coerce the data to be a tibble instead of a data frame. (You will need the tibble package to do so.) How many observations are in this dataset? How many variables? Who are the individuals in this dataset?

Solution:

library(tibble)
diabetes = as_tibble(diabetes)
diabetes

## # A tibble: 403 x 19
##       id  chol stab.glu   hdl ratio glyhb   location   age gender height
##  * <int> <int>    <int> <int> <dbl> <dbl>     <fctr> <int> <fctr>  <int>
##  1  1000   203       82    56   3.6  4.31 Buckingham    46 female     62
##  2  1001   165       97    24   6.9  4.44 Buckingham    29 female     64
##  3  1002   228       92    37   6.2  4.64 Buckingham    58 female     61
##  4  1003    78       93    12   6.5  4.63 Buckingham    67   male     67
##  5  1005   249       90    28   8.9  7.72 Buckingham    64   male     68
##  6  1008   248       94    69   3.6  4.81 Buckingham    34   male     71
##  7  1011   195       92    41   4.8  4.84 Buckingham    30   male     69
##  8  1015   227       75    44   5.2  3.94 Buckingham    37   male     59
##  9  1016   177       87    49   3.6  4.84 Buckingham    45   male     69
## 10  1022   263       89    40   6.6  5.78 Buckingham    55 female     63
## # ... with 393 more rows, and 9 more variables: weight <int>,
## #   frame <fctr>, bp.1s <int>, bp.1d <int>, bp.2s <int>, bp.2d <int>,
## #   waist <int>, hip <int>, time.ppn <int>
…
